{"logs":[{"log_id":"log_94p8Q5a5kN","message_id":"zKb1HSyxlc","action":"requeue","timestamp":1767937730.564,"payload":{"id":"task_89","user_id":"user_84","data":"Sample data for task 89","timestamp":1767937409.715},"test_field":"log_activity_updated","queue":"main","source_queue":"processing","dest_queue":"main","priority":3,"message_type":"image_process","consumer_id":"worker-ffelmh","prev_consumer_id":null,"lock_token":null,"prev_lock_token":null,"attempt_count":2,"max_attempts":3,"attempts_remaining":1,"message_created_at":1767937409.726,"message_age_ms":320837,"time_in_queue_ms":null,"processing_time_ms":null,"total_processing_time_ms":null,"payload_size_bytes":null,"redis_operation_ms":null,"queue_depth":null,"processing_depth":null,"dlq_depth":null,"error_reason":null,"error_code":null,"triggered_by":"scheduler","user_id":null,"reason":null,"batch_id":null,"batch_size":null,"prev_action":null,"prev_timestamp":null,"anomaly":{"type":"near_dlq","severity":"warning","description":"Message has only 1 attempt(s) remaining before DLQ"},"_stream_id":"1767937730789-0"},{"log_id":"log_bsHmWpzBsT","message_id":"zKb1HSyxlc","action":"timeout","timestamp":1767937730.496,"payload":{"id":"task_89","user_id":"user_84","data":"Sample data for task 89","timestamp":1767937409.715},"test_field":"log_activity_updated","queue":"processing","source_queue":null,"dest_queue":null,"priority":3,"message_type":"image_process","consumer_id":"worker-ffelmh","prev_consumer_id":null,"lock_token":null,"prev_lock_token":null,"attempt_count":2,"max_attempts":3,"attempts_remaining":1,"message_created_at":1767937409.726,"message_age_ms":320769,"time_in_queue_ms":null,"processing_time_ms":5169.999837875366,"total_processing_time_ms":null,"payload_size_bytes":null,"redis_operation_ms":null,"queue_depth":null,"processing_depth":null,"dlq_depth":null,"error_reason":"Processing timeout","error_code":null,"triggered_by":"scheduler","user_id":null,"reason":null,"batch_id":null,"batch_size":null,"prev_action":null,"prev_timestamp":null,"anomaly":null,"_stream_id":"1767937730720-0"},{"log_id":"log_CTNFRl5ZMm","message_id":"c8_W2Bu9Pw","action":"dequeue","timestamp":1767937728.362,"payload":{"id":"task_93","user_id":"user_35","data":"Sample data for task 93","timestamp":1767937409.715},"test_field":"log_activity_updated","queue":"processing","source_queue":"queue_manual","dest_queue":"processing","priority":5,"message_type":"data_sync","consumer_id":"worker-ffelmh","prev_consumer_id":null,"lock_token":"qlcGfX5IRv","prev_lock_token":null,"attempt_count":2,"max_attempts":3,"attempts_remaining":1,"message_created_at":1767937409.726,"message_age_ms":318635,"time_in_queue_ms":318434,"processing_time_ms":null,"total_processing_time_ms":null,"payload_size_bytes":96,"redis_operation_ms":null,"queue_depth":null,"processing_depth":null,"dlq_depth":null,"error_reason":null,"error_code":null,"triggered_by":"consumer","user_id":null,"reason":null,"batch_id":null,"batch_size":null,"prev_action":null,"prev_timestamp":null,"anomaly":{"type":"near_dlq","severity":"warning","description":"Message has only 1 attempt(s) remaining before DLQ"},"_stream_id":"1767937729008-0"},{"log_id":"log_4IEx3jIFrh","message_id":"idERc6M9n2","action":"dequeue","timestamp":1767937727.587,"payload":{"id":"task_92","user_id":"user_77","data":"Sample data for task 92","timestamp":1767937409.715},"test_field":"log_activity_updated","queue":"processing","source_queue":"queue_manual","dest_queue":"processing","priority":8,"message_type":"notification","consumer_id":"worker-ffelmh","prev_consumer_id":null,"lock_token":"gSw1-r_FbJ","prev_lock_token":null,"attempt_count":2,"max_attempts":3,"attempts_remaining":1,"message_created_at":1767937409.726,"message_age_ms":317860,"time_in_queue_ms":317661,"processing_time_ms":null,"total_processing_time_ms":null,"payload_size_bytes":96,"redis_operation_ms":null,"queue_depth":null,"processing_depth":null,"dlq_depth":null,"error_reason":null,"error_code":null,"triggered_by":"consumer","user_id":null,"reason":null,"batch_id":null,"batch_size":null,"prev_action":null,"prev_timestamp":null,"anomaly":{"type":"near_dlq","severity":"warning","description":"Message has only 1 attempt(s) remaining before DLQ"},"_stream_id":"1767937728227-0"},{"log_id":"log_KilnquR4EL","message_id":"x6qM_ukc5E","action":"dequeue","timestamp":1767937726.827,"payload":{"id":"task_91","user_id":"user_31","data":"Sample data for task 91","timestamp":1767937409.715},"test_field":"log_activity_updated","queue":"processing","source_queue":"queue_manual","dest_queue":"processing","priority":5,"message_type":"data_sync","consumer_id":"worker-ffelmh","prev_consumer_id":null,"lock_token":"mXFyLBvJT4","prev_lock_token":null,"attempt_count":2,"max_attempts":3,"attempts_remaining":1,"message_created_at":1767937409.726,"message_age_ms":317100,"time_in_queue_ms":316888,"processing_time_ms":null,"total_processing_time_ms":null,"payload_size_bytes":96,"redis_operation_ms":null,"queue_depth":null,"processing_depth":null,"dlq_depth":null,"error_reason":null,"error_code":null,"triggered_by":"consumer","user_id":null,"reason":null,"batch_id":null,"batch_size":null,"prev_action":null,"prev_timestamp":null,"anomaly":{"type":"near_dlq","severity":"warning","description":"Message has only 1 attempt(s) remaining before DLQ"},"_stream_id":"1767937727474-0"},{"log_id":"log_QBMJzxKqk2","message_id":"-fm_A3u4JF","action":"dequeue","timestamp":1767937726.077,"payload":{"id":"task_90","user_id":"user_3","data":"Sample data for task 90","timestamp":1767937409.715},"test_field":"log_activity_updated","queue":"processing","source_queue":"queue_manual","dest_queue":"processing","priority":2,"message_type":"data_sync","consumer_id":"worker-ffelmh","prev_consumer_id":null,"lock_token":"Hy15am13pB","prev_lock_token":null,"attempt_count":2,"max_attempts":3,"attempts_remaining":1,"message_created_at":1767937409.726,"message_age_ms":316350,"time_in_queue_ms":316151,"processing_time_ms":null,"total_processing_time_ms":null,"payload_size_bytes":95,"redis_operation_ms":null,"queue_depth":null,"processing_depth":null,"dlq_depth":null,"error_reason":null,"error_code":null,"triggered_by":"consumer","user_id":null,"reason":null,"batch_id":null,"batch_size":null,"prev_action":null,"prev_timestamp":null,"anomaly":{"type":"near_dlq","severity":"warning","description":"Message has only 1 attempt(s) remaining before DLQ"},"_stream_id":"1767937726702-0"},{"log_id":"log_88ymhD97lZ","message_id":"zKb1HSyxlc","action":"dequeue","timestamp":1767937725.332,"payload":{"id":"task_89","user_id":"user_84","data":"Sample data for task 89","timestamp":1767937409.715},"test_field":"log_activity_updated","queue":"processing","source_queue":"queue_manual","dest_queue":"processing","priority":3,"message_type":"image_process","consumer_id":"worker-ffelmh","prev_consumer_id":null,"lock_token":"M8cx0Pnt7S","prev_lock_token":null,"attempt_count":2,"max_attempts":3,"attempts_remaining":1,"message_created_at":1767937409.726,"message_age_ms":315605,"time_in_queue_ms":315394,"processing_time_ms":null,"total_processing_time_ms":null,"payload_size_bytes":96,"redis_operation_ms":null,"queue_depth":null,"processing_depth":null,"dlq_depth":null,"error_reason":null,"error_code":null,"triggered_by":"consumer","user_id":null,"reason":null,"batch_id":null,"batch_size":null,"prev_action":null,"prev_timestamp":null,"anomaly":{"type":"near_dlq","severity":"warning","description":"Message has only 1 attempt(s) remaining before DLQ"},"_stream_id":"1767937725963-0"},{"log_id":"log_TT4jFjK8ox","message_id":"c8_W2Bu9Pw","action":"move","timestamp":1767937433.064,"payload":{"id":"task_93","user_id":"user_35","data":"Sample data for task 93","timestamp":1767937409.715},"test_field":"log_activity_updated","queue":"processing","source_queue":"main","dest_queue":"processing","priority":5,"message_type":"data_sync","consumer_id":"relay","prev_consumer_id":null,"lock_token":null,"prev_lock_token":null,"attempt_count":null,"max_attempts":3,"attempts_remaining":null,"message_created_at":1767937409.726,"message_age_ms":23337,"time_in_queue_ms":null,"processing_time_ms":null,"total_processing_time_ms":null,"payload_size_bytes":null,"redis_operation_ms":null,"queue_depth":null,"processing_depth":null,"dlq_depth":null,"error_reason":null,"error_code":null,"triggered_by":"admin","user_id":null,"reason":"Manual move from main to processing","batch_id":"move_1767937432799","batch_size":5,"prev_action":null,"prev_timestamp":null,"anomaly":null,"_stream_id":"1767937433282-0"},{"log_id":"log_k7VrH2s8J-","message_id":"idERc6M9n2","action":"move","timestamp":1767937432.998,"payload":{"id":"task_92","user_id":"user_77","data":"Sample data for task 92","timestamp":1767937409.715},"test_field":"log_activity_updated","queue":"processing","source_queue":"main","dest_queue":"processing","priority":8,"message_type":"notification","consumer_id":"relay","prev_consumer_id":null,"lock_token":null,"prev_lock_token":null,"attempt_count":null,"max_attempts":3,"attempts_remaining":null,"message_created_at":1767937409.726,"message_age_ms":23271,"time_in_queue_ms":null,"processing_time_ms":null,"total_processing_time_ms":null,"payload_size_bytes":null,"redis_operation_ms":null,"queue_depth":null,"processing_depth":null,"dlq_depth":null,"error_reason":null,"error_code":null,"triggered_by":"admin","user_id":null,"reason":"Manual move from main to processing","batch_id":"move_1767937432799","batch_size":5,"prev_action":null,"prev_timestamp":null,"anomaly":null,"_stream_id":"1767937433216-0"},{"log_id":"log_4caKm7_eGj","message_id":"x6qM_ukc5E","action":"move","timestamp":1767937432.931,"payload":{"id":"task_91","user_id":"user_31","data":"Sample data for task 91","timestamp":1767937409.715},"test_field":"log_activity_updated","queue":"processing","source_queue":"main","dest_queue":"processing","priority":5,"message_type":"data_sync","consumer_id":"relay","prev_consumer_id":null,"lock_token":null,"prev_lock_token":null,"attempt_count":null,"max_attempts":3,"attempts_remaining":null,"message_created_at":1767937409.726,"message_age_ms":23204,"time_in_queue_ms":null,"processing_time_ms":null,"total_processing_time_ms":null,"payload_size_bytes":null,"redis_operation_ms":null,"queue_depth":null,"processing_depth":null,"dlq_depth":null,"error_reason":null,"error_code":null,"triggered_by":"admin","user_id":null,"reason":"Manual move from main to processing","batch_id":"move_1767937432799","batch_size":5,"prev_action":null,"prev_timestamp":null,"anomaly":null,"_stream_id":"1767937433150-0"},{"log_id":"log_c7dRXeCTrB","message_id":"-fm_A3u4JF","action":"move","timestamp":1767937432.865,"payload":{"id":"task_90","user_id":"user_3","data":"Sample data for task 90","timestamp":1767937409.715},"test_field":"log_activity_updated","queue":"processing","source_queue":"main","dest_queue":"processing","priority":2,"message_type":"data_sync","consumer_id":"relay","prev_consumer_id":null,"lock_token":null,"prev_lock_token":null,"attempt_count":null,"max_attempts":3,"attempts_remaining":null,"message_created_at":1767937409.726,"message_age_ms":23138,"time_in_queue_ms":null,"processing_time_ms":null,"total_processing_time_ms":null,"payload_size_bytes":null,"redis_operation_ms":null,"queue_depth":null,"processing_depth":null,"dlq_depth":null,"error_reason":null,"error_code":null,"triggered_by":"admin","user_id":null,"reason":"Manual move from main to processing","batch_id":"move_1767937432799","batch_size":5,"prev_action":null,"prev_timestamp":null,"anomaly":null,"_stream_id":"1767937433082-0"},{"log_id":"log_8LC9dF2eGw","message_id":"zKb1HSyxlc","action":"move","timestamp":1767937432.799,"payload":{"id":"task_89","user_id":"user_84","data":"Sample data for task 89","timestamp":1767937409.715},"test_field":"log_activity_updated","queue":"processing","source_queue":"main","dest_queue":"processing","priority":3,"message_type":"image_process","consumer_id":"relay","prev_consumer_id":null,"lock_token":null,"prev_lock_token":null,"attempt_count":null,"max_attempts":3,"attempts_remaining":null,"message_created_at":1767937409.726,"message_age_ms":23072,"time_in_queue_ms":null,"processing_time_ms":null,"total_processing_time_ms":null,"payload_size_bytes":null,"redis_operation_ms":null,"queue_depth":null,"processing_depth":null,"dlq_depth":null,"error_reason":null,"error_code":null,"triggered_by":"admin","user_id":null,"reason":"Manual move from main to processing","batch_id":"move_1767937432799","batch_size":5,"prev_action":null,"prev_timestamp":null,"anomaly":null,"_stream_id":"1767937433016-0"},{"log_id":"log_OlPZpU0_s0","message_id":"HXV3t7Y6U9","action":"enqueue","timestamp":1767937413.198,"payload":{"id":"task_100","user_id":"user_55","data":"Sample data for task 100","timestamp":1767937409.715},"test_field":"log_activity_updated","queue":"main","source_queue":null,"dest_queue":null,"priority":8,"message_type":"notification","consumer_id":"relay","prev_consumer_id":null,"lock_token":null,"prev_lock_token":null,"attempt_count":null,"max_attempts":3,"attempts_remaining":null,"message_created_at":1767937409.726,"message_age_ms":3471,"time_in_queue_ms":null,"processing_time_ms":null,"total_processing_time_ms":null,"payload_size_bytes":98,"redis_operation_ms":null,"queue_depth":null,"processing_depth":null,"dlq_depth":null,"error_reason":null,"error_code":null,"triggered_by":"api","user_id":null,"reason":null,"batch_id":"batch_QN68oXnSVV","batch_size":50,"prev_action":null,"prev_timestamp":null,"anomaly":null,"_stream_id":"1767937413416-0"},{"log_id":"log_3ECYyipf7h","message_id":"es2EmJBi9I","action":"enqueue","timestamp":1767937413.133,"payload":{"id":"task_99","user_id":"user_61","data":"Sample data for task 99","timestamp":1767937409.715},"test_field":"log_activity_updated","queue":"main","source_queue":null,"dest_queue":null,"priority":5,"message_type":"email_send","consumer_id":"relay","prev_consumer_id":null,"lock_token":null,"prev_lock_token":null,"attempt_count":null,"max_attempts":3,"attempts_remaining":null,"message_created_at":1767937409.726,"message_age_ms":3406,"time_in_queue_ms":null,"processing_time_ms":null,"total_processing_time_ms":null,"payload_size_bytes":96,"redis_operation_ms":null,"queue_depth":null,"processing_depth":null,"dlq_depth":null,"error_reason":null,"error_code":null,"triggered_by":"api","user_id":null,"reason":null,"batch_id":"batch_QN68oXnSVV","batch_size":50,"prev_action":null,"prev_timestamp":null,"anomaly":null,"_stream_id":"1767937413350-0"},{"log_id":"log_GOQ6oXVj3N","message_id":"NB8aXjqr9k","action":"enqueue","timestamp":1767937413.055,"payload":{"id":"task_98","user_id":"user_71","data":"Sample data for task 98","timestamp":1767937409.715},"test_field":"log_activity_updated","queue":"main","source_queue":null,"dest_queue":null,"priority":0,"message_type":"email_send","consumer_id":"relay","prev_consumer_id":null,"lock_token":null,"prev_lock_token":null,"attempt_count":null,"max_attempts":3,"attempts_remaining":null,"message_created_at":1767937409.726,"message_age_ms":3328,"time_in_queue_ms":null,"processing_time_ms":null,"total_processing_time_ms":null,"payload_size_bytes":96,"redis_operation_ms":null,"queue_depth":null,"processing_depth":null,"dlq_depth":null,"error_reason":null,"error_code":null,"triggered_by":"api","user_id":null,"reason":null,"batch_id":"batch_QN68oXnSVV","batch_size":50,"prev_action":null,"prev_timestamp":null,"anomaly":null,"_stream_id":"1767937413273-0"},{"log_id":"log__-FmmYGI_k","message_id":"5WEFGtWicl","action":"enqueue","timestamp":1767937412.989,"payload":{"id":"task_97","user_id":"user_19","data":"Sample data for task 97","timestamp":1767937409.715},"test_field":"log_activity_updated","queue":"main","source_queue":null,"dest_queue":null,"priority":0,"message_type":"data_sync","consumer_id":"relay","prev_consumer_id":null,"lock_token":null,"prev_lock_token":null,"attempt_count":null,"max_attempts":3,"attempts_remaining":null,"message_created_at":1767937409.726,"message_age_ms":3263,"time_in_queue_ms":null,"processing_time_ms":null,"total_processing_time_ms":null,"payload_size_bytes":96,"redis_operation_ms":null,"queue_depth":null,"processing_depth":null,"dlq_depth":null,"error_reason":null,"error_code":null,"triggered_by":"api","user_id":null,"reason":null,"batch_id":"batch_QN68oXnSVV","batch_size":50,"prev_action":null,"prev_timestamp":null,"anomaly":null,"_stream_id":"1767937413207-0"},{"log_id":"log_YNB0PI2d6e","message_id":"xi7wR_1TEN","action":"enqueue","timestamp":1767937412.924,"payload":{"id":"task_96","user_id":"user_17","data":"Sample data for task 96","timestamp":1767937409.715},"test_field":"log_activity_updated","queue":"main","source_queue":null,"dest_queue":null,"priority":3,"message_type":"backup","consumer_id":"relay","prev_consumer_id":null,"lock_token":null,"prev_lock_token":null,"attempt_count":null,"max_attempts":3,"attempts_remaining":null,"message_created_at":1767937409.726,"message_age_ms":3197,"time_in_queue_ms":null,"processing_time_ms":null,"total_processing_time_ms":null,"payload_size_bytes":96,"redis_operation_ms":null,"queue_depth":null,"processing_depth":null,"dlq_depth":null,"error_reason":null,"error_code":null,"triggered_by":"api","user_id":null,"reason":null,"batch_id":"batch_QN68oXnSVV","batch_size":50,"prev_action":null,"prev_timestamp":null,"anomaly":null,"_stream_id":"1767937413141-0"},{"log_id":"log_870Iw12LG6","message_id":"LRknGqJqmi","action":"enqueue","timestamp":1767937412.858,"payload":{"id":"task_95","user_id":"user_65","data":"Sample data for task 95","timestamp":1767937409.715},"test_field":"log_activity_updated","queue":"main","source_queue":null,"dest_queue":null,"priority":7,"message_type":"notification","consumer_id":"relay","prev_consumer_id":null,"lock_token":null,"prev_lock_token":null,"attempt_count":null,"max_attempts":3,"attempts_remaining":null,"message_created_at":1767937409.726,"message_age_ms":3131,"time_in_queue_ms":null,"processing_time_ms":null,"total_processing_time_ms":null,"payload_size_bytes":96,"redis_operation_ms":null,"queue_depth":null,"processing_depth":null,"dlq_depth":null,"error_reason":null,"error_code":null,"triggered_by":"api","user_id":null,"reason":null,"batch_id":"batch_QN68oXnSVV","batch_size":50,"prev_action":null,"prev_timestamp":null,"anomaly":null,"_stream_id":"1767937413076-0"},{"log_id":"log_gTPwLsE18x","message_id":"eImtkndEOM","action":"enqueue","timestamp":1767937412.793,"payload":{"id":"task_94","user_id":"user_99","data":"Sample data for task 94","timestamp":1767937409.715},"test_field":"log_activity_updated","queue":"main","source_queue":null,"dest_queue":null,"priority":0,"message_type":"data_sync","consumer_id":"relay","prev_consumer_id":null,"lock_token":null,"prev_lock_token":null,"attempt_count":null,"max_attempts":3,"attempts_remaining":null,"message_created_at":1767937409.726,"message_age_ms":3066,"time_in_queue_ms":null,"processing_time_ms":null,"total_processing_time_ms":null,"payload_size_bytes":96,"redis_operation_ms":null,"queue_depth":null,"processing_depth":null,"dlq_depth":null,"error_reason":null,"error_code":null,"triggered_by":"api","user_id":null,"reason":null,"batch_id":"batch_QN68oXnSVV","batch_size":50,"prev_action":null,"prev_timestamp":null,"anomaly":null,"_stream_id":"1767937413010-0"},{"log_id":"log_Dxpig6Ca2T","message_id":"c8_W2Bu9Pw","action":"enqueue","timestamp":1767937412.727,"payload":{"id":"task_93","user_id":"user_35","data":"Sample data for task 93","timestamp":1767937409.715},"test_field":"log_activity_updated","queue":"main","source_queue":null,"dest_queue":null,"priority":5,"message_type":"data_sync","consumer_id":"relay","prev_consumer_id":null,"lock_token":null,"prev_lock_token":null,"attempt_count":null,"max_attempts":3,"attempts_remaining":null,"message_created_at":1767937409.726,"message_age_ms":3000,"time_in_queue_ms":null,"processing_time_ms":null,"total_processing_time_ms":null,"payload_size_bytes":96,"redis_operation_ms":null,"queue_depth":null,"processing_depth":null,"dlq_depth":null,"error_reason":null,"error_code":null,"triggered_by":"api","user_id":null,"reason":null,"batch_id":"batch_QN68oXnSVV","batch_size":50,"prev_action":null,"prev_timestamp":null,"anomaly":null,"_stream_id":"1767937412944-0"}],"pagination":{"total":100,"limit":20,"offset":0,"has_more":true}}
